…
> tidy(running_model_2, 
+      effects = "fixed", 
+      conf.int = TRUE, 
+      conf.level = 0.80)
# A tibble: 2 x 5
  term        estimate std.error conf.low conf.high
  <chr>          <dbl>     <dbl>    <dbl>     <dbl>
1 (Intercept)    18.5     12.0       3.18     33.9 
2 age             1.32     0.224     1.03      1.60
> tidy(running_model_2, 
+      effects = "ran_vals", 
+      conf.int = TRUE, 
+      conf.level = 0.80)
# A tibble: 72 x 7
   level group  term        estimate std.error conf.low conf.high
   <chr> <chr>  <chr>          <dbl>     <dbl>    <dbl>     <dbl>
 1 1     runner (Intercept) -0.00560    0.384   -0.746     0.771 
 2 1     runner age         -0.257      0.0591  -0.336    -0.181 
 3 2     runner (Intercept) -0.00166    0.288   -0.593     0.594 
 4 2     runner age         -0.100      0.0587  -0.177    -0.0240
 5 3     runner (Intercept)  0.00344    0.263   -0.556     0.575 
 6 3     runner age          0.0173     0.0566  -0.0569    0.0910
 7 4     runner (Intercept)  0.00653    0.350   -0.667     0.693 
 8 4     runner age          0.209      0.0581   0.132     0.284 
 9 5     runner (Intercept) -0.0107     0.367   -0.736     0.686 
10 5     runner age         -0.232      0.0579  -0.306    -0.157 
# ... with 62 more rows
…
