…
和大多数事情一样，我们可以使用滑动窗口来应用交叉验证。在这里，我指定前 30 周是训练数据，每个新窗口包含接下来的两周，其中一周被评估。总共做了 44 片。

```
resamples_tscv <-timetk::time_series_cv(TC_df, 
                                        initial="30 weeks",
                                        skip= "1 week",
                                        asses = "1 week", 
                                        cumulative=FALSE)
# Time Series Cross Validation Plan 
# A tibble: 44 x 2
   splits              id     
   <list>              <chr>  
 1 <split [10281/504]> Slice01
 2 <split [10113/504]> Slice02
 3 <split [10080/369]> Slice03
 4 <split [10080/336]> Slice04
 5 <split [10080/336]> Slice05
 6 <split [10080/336]> Slice06
 7 <split [10080/336]> Slice07
 8 <split [10080/336]> Slice08
 9 <split [10080/336]> Slice09
10 <split [10080/336]> Slice10
# ... with 34 more rows
…
